%YAML 1.1
%TAG !u! tag:unity3d.com,2011:
--- !u!21 &2100000
Material:
  serializedVersion: 6
  m_ObjectHideFlags: 0
  m_CorrespondingSourceObject: {fileID: 0}
  m_PrefabInstance: {fileID: 0}
  m_PrefabAsset: {fileID: 0}
  m_Name: PolygonPrototype_Global_Grid_07
  m_Shader: {fileID: -6465566751694194690, guid: bf00925b2fbda49499ccc0de47e0d8ca,
    type: 3}
  m_ShaderKeywords: 
  m_LightmapFlags: 4
  m_EnableInstancingVariants: 0
  m_DoubleSidedGI: 0
  m_CustomRenderQueue: -1
  stringTagMap: {}
  disabledShaderPasses: []
  m_SavedProperties:
    serializedVersion: 3
    m_TexEnvs:
    - _Grid:
        m_Texture: {fileID: 2800000, guid: 2a09470ada0c47849ad79d26363f8e4a, type: 3}
        m_Scale: {x: 1, y: 1}
        m_Offset: {x: 0, y: 0}
    m_Floats:
    - Vector1_716C16CB: 1
    - Vector1_9E97F8E9: 0.5
    - Vector1_DA63AF01: 50
    - _Falloff: 50
    - _GridScale: 1
    - _OverlayAmount: 0.5
    - __dirty: 1
    m_Colors:
    - Color_1308AD31: {r: 1, g: 0.79215693, b: 0, a: 0}
    - _BaseColor: {r: 0.7686275, g: 0.81568635, b: 0.85098046, a: 0}
