%YAML 1.1
%TAG !u! tag:unity3d.com,2011:
--- !u!21 &2100000
Material:
  serializedVersion: 6
  m_ObjectHideFlags: 0
  m_CorrespondingSourceObject: {fileID: 0}
  m_PrefabInstance: {fileID: 0}
  m_PrefabAsset: {fileID: 0}
  m_Name: PolygonPrototype_Glass_Global
  m_Shader: {fileID: -6465566751694194690, guid: 9655a0ca1feb1454db2465a9df384bf4,
    type: 3}
  m_ShaderKeywords: 
  m_LightmapFlags: 4
  m_EnableInstancingVariants: 0
  m_DoubleSidedGI: 0
  m_CustomRenderQueue: -1
  stringTagMap: {}
  disabledShaderPasses: []
  m_SavedProperties:
    serializedVersion: 3
    m_TexEnvs:
    - _Grid:
        m_Texture: {fileID: 2800000, guid: 1432e62c10501d147a873c128326f711, type: 3}
        m_Scale: {x: 1, y: 1}
        m_Offset: {x: 0, y: 0}
    m_Floats:
    - _Falloff: 50
    - _GridScale: 5
    - _OverlayAmount: 0.334
    - _Smoothness: 1
    - _Specular: 0.1
    - __dirty: 1
    m_Colors:
    - Color_1308AD31: {r: 0, g: 1, b: 0.8982549, a: 0}
    - _BaseColor: {r: 0.06228374, g: 0.8320726, b: 0.9411765, a: 0}
    - _Opacity: {r: 0.41911763, g: 0.41911763, b: 0.41911763, a: 0}
